ru/ermakov/taskmanager/controller/TaskController.class
ru/ermakov/taskmanager/service/AbstractService.class
ru/ermakov/taskmanager/service/ProjectService.class
ru/ermakov/taskmanager/repository/ProjectRepository.class
ru/ermakov/taskmanager/api/repository/IUserRepository.class
ru/ermakov/taskmanager/repository/AbstractRepository.class
ru/ermakov/taskmanager/api/repository/ITaskRepository.class
ru/ermakov/taskmanager/api/service/IProjectService.class
ru/ermakov/taskmanager/api/repository/IAbstractRepository.class
ru/ermakov/taskmanager/config/WebConfig.class
ru/ermakov/taskmanager/service/UserService.class
ru/ermakov/taskmanager/service/TaskService.class
ru/ermakov/taskmanager/api/repository/IProjectRepository.class
ru/ermakov/taskmanager/repository/UserRepository.class
ru/ermakov/taskmanager/repository/TaskRepository.class
ru/ermakov/taskmanager/config/AppInitializer.class
ru/ermakov/taskmanager/api/service/IUserService.class
ru/ermakov/taskmanager/model/Task.class
ru/ermakov/taskmanager/model/AbstractModel.class
ru/ermakov/taskmanager/controller/ProjectController.class
ru/ermakov/taskmanager/model/AbstractDeal.class
ru/ermakov/taskmanager/controller/AppController.class
ru/ermakov/taskmanager/enumerate/RoleType.class
ru/ermakov/taskmanager/model/Project.class
ru/ermakov/taskmanager/model/User.class
ru/ermakov/taskmanager/enumerate/ReadinessStatus.class
ru/ermakov/taskmanager/api/service/ITaskService.class
